Name,DataType,MinCardinality,MaxCardinality,Description,Ordered,AllowSubtypes,MinLength,MaxLength,Enumeration,Pattern,MinInclusive,MinExclusive,MaxInclusive,MaxExclusive,DeprecatedNamespace,DeprecatedElementOrAttribute,DeprecatedChoiceGroup
FileName,string,1,1,"Name of the file being merged.  May be ""Active file"".",,,,,,,,,,,,,
MergeType,string,1,1,Describes the type of merge performed. ,,,,,"""sequential"" ""1:1""  ""may:1"" ""1:many"",""many:many"" ""1:1 duplicates unmatched""",,,,,,,,
MergeFlagVariable,string,0,1,Creates a new variable indicating whether the row came from this file or a different input file.,,,,,,,,,,,,,
RenameVariables,RenamePair,0,n,Variables to be renamed,,TRUE,,,,,,,,,,,
Overlap,string,0,1,"Outcome when the same variables exist in more than one file. ""Master"" means the value is taken from this file.  ""Merge"" means the value is taken from the other file.  ""Update"" means that value is taken from the other file when the value in this file is missing.",,,,,"""Master"" ""Merge"" ""Update""",,,,,,,,
NewRow,boolean,0,1,Generate new row when not matched to other files,,,,,,,,,,,,,
KeepVariables,VariableReferenceBase,0,1,List of variables to keep,,TRUE,,,,,,,,,,,
DropVariables,VariableReferenceBase,0,1,List of variables to drop,,TRUE,,,,,,,,,,,
