Name,DataType,MinCardinality,MaxCardinality,Description,Ordered,AllowSubtypes,MinLength,MaxLength,Enumeration,Pattern,MinInclusive,MinExclusive,MaxInclusive,MaxExclusive,DeprecatedNamespace,DeprecatedElementOrAttribute,DeprecatedChoiceGroup
From,string,0,1,Starting value for range,,,,,,,,,,,,,
To,string,0,1,Ending value for range,,,,,,,,,,,,,
By,string,0,1,Increment for stepping through range,,,,,,,,,,,,,
