Name,DataType,MinCardinality,MaxCardinality,Description,Ordered,AllowSubtypes,MinLength,MaxLength,Enumeration,Pattern,MinInclusive,MinExclusive,MaxInclusive,MaxExclusive,DeprecatedNamespace,DeprecatedElementOrAttribute,DeprecatedChoiceGroup
Stub,string,1,1,A string used as the base for forming new variable names.,,,,,,,,,,,,,
Prefix,ExpressionBase,0,1,"A string attached to the beginning of the Stub to form new variable names, e.g. '1new', '2new'.",,TRUE,,,,,,,,,,,
Postfix,ExpressionBase,0,1,"A string attached to the end of the Stub to form new variable names, e.g. 'new1', 'new2'.",,TRUE,,,,,,,,,,,
