Name,DataType,MinCardinality,MaxCardinality,Description,Ordered,AllowSubtypes,MinLength,MaxLength,Enumeration,Pattern,MinInclusive,MinExclusive,MaxInclusive,MaxExclusive,DeprecatedNamespace,DeprecatedElementOrAttribute,DeprecatedChoiceGroup
OldVariable,string,1,1,The old name of the variable.,,,,,,,,,,,,,
NewVariable,string,1,1,The new name of the variable.,,,,,,,,,,,,,
