Name,DataType,MinCardinality,MaxCardinality,Description,Ordered,AllowSubtypes,MinLength,MaxLength,Enumeration,Pattern,MinInclusive,MinExclusive,MaxInclusive,MaxExclusive,DeprecatedNamespace,DeprecatedElementOrAttribute,DeprecatedChoiceGroup
Source,ExpressionBase,1,1,Name of the source variable or variables,,TRUE,,,"VariableSymbolExpression, VariableRangeExpression, VariableListExpression, CompositeVariableName",,,,,,,,
Target,ExpressionBase,0,1,Name of the target variable or variables,,TRUE,,,"VariableSymbolExpression, VariableRangeExpression, VariableListExpression, CompositeVariableName",,,,,,,,
TargetLabel,string,0,1,Label for the target variable,,,,,,,,,,,,,
Rules,RecodeRule,1,n,Rules to be used in recoding,,,,,,,,,,,,,
Condition,ExpressionBase,0,1,Recode rule is only applied if Condition is true,,TRUE,,,,,,,,,,,
